…
### Variable selection

Next, using a threshold of 0.95 we can extract the selected variables
using the VIP method ([Bach](#2) and [Bunea et al.](#3)), which selects
all variables that were selected (non-zero coefficient) in \>= 95% of
the bootstrapped models. We’ll use the regularization parameter lambda
that minimizes cross-validation error.

``` r
selected_variables(model, threshold = 0.95, method = "vip", select = "lambda.min")
#> # A tibble: 100 × 6
#>    id     pregnant glucose pressure   mass pedigree
#>    <chr>     <dbl>   <dbl>    <dbl>  <dbl>    <dbl>
#>  1 boot1    0.0997  0.0341 -0.0182  0.0744    0.629
#>  2 boot2    0.118   0.0406 -0.0133  0.0659    1.45 
#>  3 boot3    0.127   0.0354 -0.00767 0.0894    0.534
#>  4 boot4    0.172   0.0349 -0.0118  0.0658    0.950
#>  5 boot5    0.123   0.0330 -0.0121  0.0760    0.667
#>  6 boot6    0.152   0.0342 -0.0112  0.0777    0.828
#>  7 boot7    0.0689  0.0374 -0.0119  0.0874    0.748
#>  8 boot8    0.145   0.0338 -0.0124  0.0881    0.977
#>  9 boot9    0.155   0.0331 -0.00740 0.0623    1.52 
#> 10 boot10   0.144   0.0403 -0.00748 0.0519    0.651
#> # ℹ 90 more rows
```
…
### Coefficients

#### All coefficients

bolasso also supports moving beyond variable selection and understanding
the bootstrapped variable coefficients. We can extract a tidy tibble
where each variable is a column, and each row represents a bootstrap
fold, and the values are the corresponding estimated coefficients.

``` r
tidy(model, select = "lambda.min")
#> # A tibble: 100 × 10
#>    id     Intercept pregnant glucose pressure   triceps  insulin   mass pedigree
#>    <chr>      <dbl>    <dbl>   <dbl>    <dbl>     <dbl>    <dbl>  <dbl>    <dbl>
#>  1 boot1      -7.61   0.0997  0.0341 -0.0182   0.00410  -2.66e-3 0.0744    0.629
#>  2 boot2      -9.01   0.118   0.0406 -0.0133   0.0140   -2.44e-3 0.0659    1.45 
#>  3 boot3      -8.67   0.127   0.0354 -0.00767 -0.00250  -9.96e-4 0.0894    0.534
#>  4 boot4      -7.29   0.172   0.0349 -0.0118  -0.00461  -3.65e-4 0.0658    0.950
#>  5 boot5      -7.78   0.123   0.0330 -0.0121  -0.00291  -6.54e-4 0.0760    0.667
#>  6 boot6      -7.73   0.152   0.0342 -0.0112   0.00558  -1.58e-3 0.0777    0.828
#>  7 boot7      -7.99   0.0689  0.0374 -0.0119  -0.000679 -1.36e-3 0.0874    0.748
#>  8 boot8      -8.14   0.145   0.0338 -0.0124  -0.00252  -3.05e-4 0.0881    0.977
#>  9 boot9      -7.69   0.155   0.0331 -0.00740 -0.00191  -8.19e-4 0.0623    1.52 
#> 10 boot10     -7.60   0.144   0.0403 -0.00748  0        -8.98e-4 0.0519    0.651
#> # ℹ 90 more rows
#> # ℹ 1 more variable: age <dbl>
```
…
<img src="man/figures/README-unnamed-chunk-13-1.png" width="75%" />

### Predictions

Finally, we can make predictions using our bolasso model on new data.
For example, the following code shows how we would generate predicted
probabilites on our `test` data.

``` r
as_tibble(predict(model, test, select = "lambda.min", type = "response"))
#> # A tibble: 230 × 100
#>     boot1  boot2  boot3  boot4  boot5  boot6  boot7  boot8  boot9 boot10 boot11
#>     <dbl>  <dbl>  <dbl>  <dbl>  <dbl>  <dbl>  <dbl>  <dbl>  <dbl>  <dbl>  <dbl>
#>  1 0.772  0.823  0.663  0.700  0.701  0.682  0.662  0.682  0.643  0.697  0.769 
#>  2 0.794  0.855  0.765  0.879  0.792  0.801  0.786  0.803  0.834  0.890  0.728 
#>  3 0.0464 0.0300 0.0400 0.0541 0.0486 0.0487 0.0539 0.0445 0.0394 0.0528 0.0479
#>  4 0.665  0.746  0.704  0.733  0.755  0.604  0.710  0.725  0.559  0.785  0.851 
#>  5 0.652  0.721  0.586  0.682  0.658  0.555  0.584  0.622  0.592  0.696  0.703 
#>  6 0.294  0.334  0.333  0.303  0.328  0.327  0.403  0.370  0.271  0.279  0.421 
#>  7 0.207  0.145  0.201  0.279  0.225  0.210  0.183  0.215  0.201  0.243  0.169 
#>  8 0.348  0.252  0.316  0.352  0.357  0.270  0.238  0.324  0.269  0.269  0.337 
#>  9 0.744  0.680  0.741  0.752  0.740  0.687  0.707  0.732  0.633  0.725  0.781 
#> 10 0.0457 0.0388 0.0401 0.0707 0.0544 0.0506 0.0569 0.0522 0.0590 0.0659 0.0428
#> # ℹ 220 more rows
#> # ℹ 89 more variables: boot12 <dbl>, boot13 <dbl>, boot14 <dbl>, boot15 <dbl>,
#> #   boot16 <dbl>, boot17 <dbl>, boot18 <dbl>, boot19 <dbl>, boot20 <dbl>,
#> #   boot21 <dbl>, boot22 <dbl>, boot23 <dbl>, boot24 <dbl>, boot25 <dbl>,
#> #   boot26 <dbl>, boot27 <dbl>, boot28 <dbl>, boot29 <dbl>, boot30 <dbl>,
#> #   boot31 <dbl>, boot32 <dbl>, boot33 <dbl>, boot34 <dbl>, boot35 <dbl>,
#> #   boot36 <dbl>, boot37 <dbl>, boot38 <dbl>, boot39 <dbl>, boot40 <dbl>, …
```

Note that this outputs an (n x p) matrix of predictions where n is the
number of rows in our test set, p is the number of bootstraps, and each
column represents the predictions from one of our bootstrapped models.
To combine these into a single prediction per observation, we could take
the average for each observation across the models:

``` r
tibble(
  predictions = rowMeans(
    predict(model, test, select = "lambda.min", type = "response")
  )
)
#> # A tibble: 230 × 1
#>    predictions
#>          <dbl>
#>  1      0.701 
#>  2      0.790 
#>  3      0.0479
#>  4      0.724 
#>  5      0.631 
#>  6      0.371 
#>  7      0.205 
#>  8      0.311 
#>  9      0.722 
#> 10      0.0532
#> # ℹ 220 more rows
```
…
